%YAML 1.1
%TAG !u! tag:unity3d.com,2011:
--- !u!1045 &1
EditorBuildSettings:
  m_ObjectHideFlags: 0
  serializedVersion: 2
  m_Scenes:
  - enabled: 1
    path: Assets/Scenes/MainMenu.unity
    guid: e61ba79e57e0d114d93659752fed5fff
  - enabled: 1
    path: Assets/Scenes/Level1.unity
    guid: 50f1c8d979ec2e34598b12f5b8ee29b6
  - enabled: 1
    path: Assets/Scenes/Level2.unity
    guid: 7532336b636505f4abded03da3329a3c
  - enabled: 1
    path: Assets/Scenes/Level3.unity
    guid: a130e8d572a20ad4bb77e10646e74429
  - enabled: 1
    path: Assets/Scenes/Level4.unity
    guid: 37c3000c21f076043a316425a990f30e
  - enabled: 1
    path: Assets/Scenes/Level5.unity
    guid: c2d4a8d9eba8e9f45a8911eccf6fb9ac
  - enabled: 1
    path: Assets/Scenes/Credits.unity
    guid: 1c9bfb6170d0fd349afb256aa28be272
  - enabled: 1
    path: Assets/Scenes/IntroVid.unity
    guid: ba2f7928679c6f7499ba075cfa7a3839
  m_configObjects: {}
